// =============================================================================
// Scilab ( https://www.scilab.org/ ) - This file is part of Scilab
// Copyright (C) 2014 - Scilab Enterprises - Paul Bignier
//
//  This file is distributed under the same license as the Scilab package.
// =============================================================================
//
// <-- CLI SHELL MODE -->
loadXcosLibs();
scicos_log("TRACE");
// Creating a Diagram containing a Link connected to a Block
scs = scicos_diagram( objs=list(BIGSOM_f("define"),scicos_link(from=[1,1,0])) );
Xcos info:    objectCreated( 1 , BLOCK )
Xcos trace:   objectReferenced( 1 , BLOCK ) : 1
Xcos trace:   propertyUpdated( 1 , BLOCK , GEOMETRY ) : NO_CHANGES
Xcos debug:   propertyUpdated( 1 , BLOCK , GEOMETRY ) : SUCCESS
Xcos debug:   propertyUpdated( 1 , BLOCK , EXPRS ) : SUCCESS
Xcos info:    objectCreated( 2 , PORT )
Xcos debug:   propertyUpdated( 2 , PORT , SOURCE_BLOCK ) : SUCCESS
Xcos debug:   propertyUpdated( 2 , PORT , PORT_KIND ) : SUCCESS
Xcos trace:   propertyUpdated( 2 , PORT , CONNECTED_SIGNALS ) : NO_CHANGES
Xcos info:    objectCreated( 3 , PORT )
Xcos debug:   propertyUpdated( 3 , PORT , SOURCE_BLOCK ) : SUCCESS
Xcos debug:   propertyUpdated( 3 , PORT , PORT_KIND ) : SUCCESS
Xcos trace:   propertyUpdated( 3 , PORT , CONNECTED_SIGNALS ) : NO_CHANGES
Xcos debug:   propertyUpdated( 1 , BLOCK , INPUTS ) : SUCCESS
Xcos info:    objectCreated( 4 , PORT )
Xcos debug:   propertyUpdated( 4 , PORT , SOURCE_BLOCK ) : SUCCESS
Xcos debug:   propertyUpdated( 4 , PORT , PORT_KIND ) : SUCCESS
Xcos trace:   propertyUpdated( 4 , PORT , CONNECTED_SIGNALS ) : NO_CHANGES
Xcos debug:   propertyUpdated( 1 , BLOCK , OUTPUTS ) : SUCCESS
Xcos trace:   propertyUpdated( 1 , BLOCK , DESCRIPTION ) : NO_CHANGES
Xcos trace:   propertyUpdated( 2 , PORT , IMPLICIT ) : NO_CHANGES
Xcos trace:   propertyUpdated( 3 , PORT , IMPLICIT ) : NO_CHANGES
Xcos trace:   propertyUpdated( 4 , PORT , IMPLICIT ) : NO_CHANGES
Xcos trace:   propertyUpdated( 2 , PORT , STYLE ) : NO_CHANGES
Xcos trace:   propertyUpdated( 3 , PORT , STYLE ) : NO_CHANGES
Xcos trace:   propertyUpdated( 4 , PORT , STYLE ) : NO_CHANGES
Xcos trace:   propertyUpdated( 2 , PORT , LABEL ) : NO_CHANGES
Xcos trace:   propertyUpdated( 3 , PORT , LABEL ) : NO_CHANGES
Xcos trace:   propertyUpdated( 4 , PORT , LABEL ) : NO_CHANGES
Xcos trace:   propertyUpdated( 1 , BLOCK , STYLE ) : NO_CHANGES
Xcos trace:   objectUnreferenced( 1 , BLOCK ) : 0
Xcos trace:   objectReferenced( 1 , BLOCK ) : 1
Xcos debug:   propertyUpdated( 1 , BLOCK , SIM_FUNCTION_NAME ) : SUCCESS
Xcos debug:   propertyUpdated( 1 , BLOCK , SIM_FUNCTION_API ) : SUCCESS
Xcos debug:   propertyUpdated( 2 , PORT , DATATYPE ) : SUCCESS
Xcos debug:   propertyUpdated( 3 , PORT , DATATYPE ) : SUCCESS
Xcos debug:   propertyUpdated( 4 , PORT , DATATYPE ) : SUCCESS
Xcos trace:   propertyUpdated( 1 , BLOCK , STATE ) : NO_CHANGES
Xcos trace:   propertyUpdated( 1 , BLOCK , DSTATE ) : NO_CHANGES
Xcos trace:   propertyUpdated( 1 , BLOCK , ODSTATE ) : NO_CHANGES
Xcos debug:   propertyUpdated( 1 , BLOCK , RPAR ) : SUCCESS
Xcos trace:   propertyUpdated( 1 , BLOCK , IPAR ) : NO_CHANGES
Xcos trace:   propertyUpdated( 1 , BLOCK , OPAR ) : NO_CHANGES
Xcos trace:   propertyUpdated( 1 , BLOCK , SIM_BLOCKTYPE ) : NO_CHANGES
Xcos debug:   propertyUpdated( 1 , BLOCK , SIM_DEP_UT ) : SUCCESS
Xcos trace:   propertyUpdated( 1 , BLOCK , DESCRIPTION ) : NO_CHANGES
Xcos trace:   propertyUpdated( 1 , BLOCK , NZCROSS ) : NO_CHANGES
Xcos trace:   propertyUpdated( 1 , BLOCK , NMODE ) : NO_CHANGES
Xcos trace:   propertyUpdated( 1 , BLOCK , EQUATIONS ) : NO_CHANGES
Xcos trace:   propertyUpdated( 1 , BLOCK , UID ) : NO_CHANGES
Xcos trace:   objectUnreferenced( 1 , BLOCK ) : 0
Xcos debug:   propertyUpdated( 1 , BLOCK , INTERFACE_FUNCTION ) : SUCCESS
Xcos info:    objectCreated( 5 , LINK )
Xcos trace:   propertyUpdated( 5 , LINK , CONTROL_POINTS ) : NO_CHANGES
Xcos trace:   propertyUpdated( 5 , LINK , CONTROL_POINTS ) : NO_CHANGES
Xcos trace:   propertyUpdated( 5 , LINK , DESCRIPTION ) : NO_CHANGES
Xcos trace:   propertyUpdated( 5 , LINK , THICK ) : NO_CHANGES
Xcos trace:   propertyUpdated( 5 , LINK , COLOR ) : NO_CHANGES
Xcos trace:   propertyUpdated( 5 , LINK , KIND ) : NO_CHANGES
Xcos info:    objectCreated( 6 , DIAGRAM )
Xcos trace:   objectReferenced( 6 , DIAGRAM ) : 1
Xcos trace:   propertyUpdated( 6 , DIAGRAM , TITLE ) : NO_CHANGES
Xcos trace:   propertyUpdated( 6 , DIAGRAM , PATH ) : NO_CHANGES
Xcos trace:   propertyUpdated( 6 , DIAGRAM , PROPERTIES ) : NO_CHANGES
Xcos trace:   propertyUpdated( 6 , DIAGRAM , PROPERTIES ) : NO_CHANGES
Xcos trace:   propertyUpdated( 6 , DIAGRAM , CONTEXT ) : NO_CHANGES
Xcos trace:   objectUnreferenced( 6 , DIAGRAM ) : 0
Xcos trace:   objectReferenced( 1 , BLOCK ) : 1
Xcos debug:   propertyUpdated( 1 , BLOCK , PARENT_DIAGRAM ) : SUCCESS
Xcos trace:   propertyUpdated( 1 , BLOCK , PARENT_BLOCK ) : NO_CHANGES
Xcos trace:   objectReferenced( 5 , LINK ) : 1
Xcos debug:   propertyUpdated( 5 , LINK , PARENT_DIAGRAM ) : SUCCESS
Xcos trace:   propertyUpdated( 5 , LINK , PARENT_BLOCK ) : NO_CHANGES
Xcos trace:   propertyUpdated( 4 , PORT , CONNECTED_SIGNALS ) : NO_CHANGES
Xcos debug:   propertyUpdated( 4 , PORT , CONNECTED_SIGNALS ) : SUCCESS
Xcos debug:   propertyUpdated( 5 , LINK , SOURCE_PORT ) : SUCCESS
Xcos trace:   propertyUpdated( 5 , LINK , DESTINATION_PORT ) : NO_CHANGES
Xcos debug:   propertyUpdated( 6 , DIAGRAM , CHILDREN ) : SUCCESS
Xcos debug:   propertyUpdated( 6 , DIAGRAM , VERSION_NUMBER ) : SUCCESS
Xcos trace:   objectUnreferenced( 1 , BLOCK ) : 0
Xcos trace:   objectUnreferenced( 5 , LINK ) : 0
// Extracting and modifying the Link should not modify the original Diagram
newLink = scs.objs(2);
Xcos trace:   objectReferenced( 1 , BLOCK ) : 1
Xcos trace:   objectReferenced( 5 , LINK ) : 1
Xcos trace:   objectUnreferenced( 1 , BLOCK ) : 0
newLink.from = [3 1 0];
Xcos info:    objectCreated( 7 , LINK )
Xcos info:    objectCloned( 5 , 7 , LINK )
Xcos trace:   propertyUpdated( 7 , LINK , COLOR ) : NO_CHANGES
Xcos trace:   propertyUpdated( 7 , LINK , KIND ) : NO_CHANGES
Xcos trace:   propertyUpdated( 7 , LINK , DESCRIPTION ) : NO_CHANGES
Xcos trace:   propertyUpdated( 7 , LINK , UID ) : NO_CHANGES
Xcos trace:   propertyUpdated( 7 , LINK , STYLE ) : NO_CHANGES
Xcos trace:   propertyUpdated( 7 , LINK , CONTROL_POINTS ) : NO_CHANGES
Xcos trace:   propertyUpdated( 7 , LINK , THICK ) : NO_CHANGES
Xcos trace:   propertyUpdated( 7 , LINK , PARENT_DIAGRAM ) : NO_CHANGES
Xcos trace:   propertyUpdated( 7 , LINK , PARENT_BLOCK ) : NO_CHANGES
Xcos trace:   propertyUpdated( 7 , LINK , SOURCE_PORT ) : NO_CHANGES
Xcos trace:   propertyUpdated( 7 , LINK , DESTINATION_PORT ) : NO_CHANGES
Xcos trace:   objectUnreferenced( 5 , LINK ) : 0
assert_checkequal(scs.objs(1).graphics.pout, 2);
Xcos trace:   objectReferenced( 1 , BLOCK ) : 1
Xcos trace:   objectReferenced( 5 , LINK ) : 1
Xcos trace:   objectUnreferenced( 5 , LINK ) : 0
Xcos trace:   objectReferenced( 1 , BLOCK ) : 2
Xcos trace:   objectUnreferenced( 1 , BLOCK ) : 1
Xcos trace:   objectUnreferenced( 1 , BLOCK ) : 0
assert_checkequal(scs.objs(2).from, [1 1 0]);
Xcos trace:   objectReferenced( 1 , BLOCK ) : 1
Xcos trace:   objectReferenced( 5 , LINK ) : 1
Xcos trace:   objectUnreferenced( 1 , BLOCK ) : 0
Xcos trace:   objectUnreferenced( 5 , LINK ) : 0
assert_checkequal(newLink.from, [3 1 0]);
// Check that all the model items are freed
clear
Xcos info:    objectDeleted( 7 , LINK )
Xcos debug:   propertyUpdated( 1 , BLOCK , PARENT_DIAGRAM ) : SUCCESS
Xcos debug:   propertyUpdated( 5 , LINK , PARENT_DIAGRAM ) : SUCCESS
Xcos debug:   propertyUpdated( 1 , BLOCK , INPUTS ) : SUCCESS
Xcos trace:   propertyUpdated( 1 , BLOCK , OUTPUTS ) : NO_CHANGES
Xcos trace:   propertyUpdated( 1 , BLOCK , EVENT_INPUTS ) : NO_CHANGES
Xcos trace:   propertyUpdated( 1 , BLOCK , EVENT_OUTPUTS ) : NO_CHANGES
Xcos info:    objectDeleted( 2 , PORT )
Xcos debug:   propertyUpdated( 1 , BLOCK , INPUTS ) : SUCCESS
Xcos trace:   propertyUpdated( 1 , BLOCK , OUTPUTS ) : NO_CHANGES
Xcos trace:   propertyUpdated( 1 , BLOCK , EVENT_INPUTS ) : NO_CHANGES
Xcos trace:   propertyUpdated( 1 , BLOCK , EVENT_OUTPUTS ) : NO_CHANGES
Xcos info:    objectDeleted( 3 , PORT )
Xcos trace:   propertyUpdated( 1 , BLOCK , INPUTS ) : NO_CHANGES
Xcos debug:   propertyUpdated( 1 , BLOCK , OUTPUTS ) : SUCCESS
Xcos trace:   propertyUpdated( 1 , BLOCK , EVENT_INPUTS ) : NO_CHANGES
Xcos trace:   propertyUpdated( 1 , BLOCK , EVENT_OUTPUTS ) : NO_CHANGES
Xcos debug:   propertyUpdated( 5 , LINK , SOURCE_PORT ) : SUCCESS
Xcos info:    objectDeleted( 4 , PORT )
Xcos info:    objectDeleted( 1 , BLOCK )
Xcos info:    objectDeleted( 5 , LINK )
Xcos info:    objectDeleted( 6 , DIAGRAM )
