// =============================================================================
// Scilab ( https://www.scilab.org/ ) - This file is part of Scilab
// Copyright (C) 2005-2008 - INRIA - Pierre MARECHAL <pierre.marechal@inria.fr>
//
//  This file is distributed under the same license as the Scilab package.
// =============================================================================
// <-- CLI SHELL MODE -->
// <-- Non-regression test for bug 1693 -->
//
// <-- GitLab URL -->
// https://gitlab.com/scilab/scilab/-/issues/1693
//
// <-- Short Description -->
//    cd \ throws an error
// ...
// ================== Test 1 ==================
cd('\');
if getos() == 'Windows' 
  
	if ~or(getdrives() == pwd()) then bugmes();quit;end
else
	if pwd() <> '/' then bugmes();quit;end
end
// ================== Test 2 ==================
cd home;
if pwd() <> home then bugmes();quit;end
// ================== Test 3 ==================
if getos() == 'Windows' then
	cd WSCI;
	if pwd() <> WSCI then bugmes();quit;end
end
// ================== Test 4 ==================
cd SCIHOME;
if pwd() <> SCIHOME then bugmes();quit;end
// ================== Test 5 ==================
cd SCIHOME;
if pwd() <> SCIHOME then bugmes();quit;end
// ================== Test 6 ==================
cd PWD;
if pwd() <> PWD then bugmes();quit;end
