// =============================================================================
// Scilab ( https://www.scilab.org/ ) - This file is part of Scilab
// Copyright (C) 2009 - DIGITEO - Pierre MARECHAL <pierre.marechal@scilab.org>
//
//  This file is distributed under the same license as the Scilab package.
// =============================================================================
// <-- ENGLISH IMPOSED -->
// <-- CLI SHELL MODE -->
load("SCI/modules/atoms/macros/atoms_internals/lib");
exec("SCI/modules/atoms/tests/unit_tests/atomsTestUtils.sce");
// Load the 1st scenario : See scene10.test.atoms.scilab.org.txt
// =============================================================================
atomsLoadTestScene("scene10");
Scanning repository file://TMPDIR/scene10 ... Done
// -----------------------------------------------------------------------------
ref = [ "+" "U" "toolbox_4V6" "1.0-1" ;
"+" ""  "toolbox_2V6" "1.0-1" ;
"+" ""  "toolbox_1V6" "1.0-1" ];
if or(atomsInstallList("toolbox_4V6")<>ref) then bugmes();quit;end
// -----------------------------------------------------------------------------
ref = [ "+" "U" "toolbox_3V6" "1.0-1" ;
"+" ""  "toolbox_2V6" "2.0-1" ;
"+" ""  "toolbox_1V6" "1.0-1" ];
if or(atomsInstallList("toolbox_3V6")<>ref) then bugmes();quit;end
// -----------------------------------------------------------------------------
ref = [ "+" "U" "toolbox_6V6" "1.0-1" ;
"+" ""  "toolbox_1V6" "1.0-1" ;
"+" ""  "toolbox_2V6" "2.0-1" ];
if or(atomsInstallList("toolbox_6V6")<>ref) then bugmes();quit;end
// Load the 2nd scenario : See scene11.test.atoms.scilab.org.txt
// =============================================================================
atomsLoadTestScene("scene11");
Scanning repository file://TMPDIR/scene11 ... Done
// -----------------------------------------------------------------------------
ref = [ "+" "U" "toolbox_4V6" "1.1-1" ;
"+" ""  "toolbox_2V6" "1.0-1" ;
"+" ""  "toolbox_1V6" "1.0-1" ];
if or(atomsInstallList("toolbox_4V6")<>ref) then bugmes();quit;end
// -----------------------------------------------------------------------------
ref = [ "+" "U" "toolbox_3V6" "1.0-1" ;
"+" ""  "toolbox_2V6" "2.1-1" ;
"+" ""  "toolbox_1V6" "1.0-1" ];
if or(atomsInstallList("toolbox_3V6")<>ref) then bugmes();quit;end
// -----------------------------------------------------------------------------
ref = [ "+" "U" "toolbox_6V6" "1.0-1" ;
"+" ""  "toolbox_1V6" "1.0-1" ;
"+" ""  "toolbox_2V6" "2.1-1" ];
if or(atomsInstallList("toolbox_6V6")<>ref) then bugmes();quit;end
// Restore Original values
// =============================================================================
atomsRepositorySetOfl(mgetl(SCI+"/modules/atoms/tests/unit_tests/repositories.orig"));
Scanning repository https://atoms.scilab.org/2023.0/TOOLBOXES/64 ... Done
